# pNcenT, phiNcenT
2.000000000000000475e-03,1.000000000000000021e-03
2.095231505579330487e-03,1.064785977823349151e-03
2.194997530986111597e-03,1.133769178569225562e-03
2.299513990795471700e-03,1.207221523428809269e-03
2.409007080517565173e-03,1.285432550273537871e-03
2.523713766132042267e-03,1.368710554968970280e-03
2.643882296932057677e-03,1.457383806629773855e-03
2.769772742787746881e-03,1.551801841606198365e-03
2.901657556991880764e-03,1.652336841302729864e-03
3.039822165905866919e-03,1.759385099260072846e-03
3.184565586682184916e-03,1.873368583283466704e-03
3.336201074400118888e-03,1.994736598775028250e-03
3.495056800015366311e-03,2.123967559826689822e-03
3.661476560590736038e-03,2.261570875055134763e-03
3.835820523344978233e-03,2.408088955612388768e-03
4.018466005130096053e-03,2.564099353287347532e-03
4.209808289024039724e-03,2.730217037126285180e-03
4.410261479806091948e-03,2.907096817546478505e-03
4.620259400166321778e-03,3.095435927498373357e-03
4.840256529588767183e-03,3.295976770850880897e-03
5.070728987940223594e-03,3.509509848833503119e-03
5.312175565893374404e-03,3.736876876070851800e-03
5.565118804414252197e-03,3.978974098492567973e-03
5.830106125650351932e-03,4.236755826197187956e-03
6.107711017666831582e-03,4.511238195196143851e-03
6.398534275594770088e-03,4.803503172865966966e-03
6.703205301877682848e-03,5.114702822897648077e-03
7.022383468430262558e-03,5.446063846554921768e-03
7.356759543657269418e-03,5.798892418142371358e-03
7.707057187421055902e-03,6.174579333744129907e-03
8.074034517193108551e-03,6.574605493528586780e-03
8.458485748778998836e-03,7.000547739229598734e-03
8.861242915167766299e-03,7.454085069814631558e-03
9.283177667225564825e-03,7.937005259840999860e-03
9.725203160130709013e-03,8.451211906588863149e-03
1.018827602963276284e-02,8.998731933749552769e-03
1.067339846241262095e-02,9.581723581247715213e-03
1.118162036502444619e-02,1.020248491269189553e-02
1.171404163611333531e-02,1.086346287398860626e-02
1.227181454682635398e-02,1.156726293882760770e-02
1.285614623456864634e-02,1.231665937905934705e-02
1.346830131550164414e-02,1.311460620044883028e-02
1.410960462143729353e-02,1.396424878691306277e-02
1.478144406705155997e-02,1.486893629914175056e-02
1.548527365362254229e-02,1.583223487647473712e-02
1.622261661579374806e-02,1.685794169407608262e-02
1.699506871817289475e-02,1.795009993081581740e-02
1.780430170890077990e-02,1.911301470686055035e-02
1.865206693766439938e-02,2.035127005379656212e-02
1.954019914598451382e-02,2.166974698417882539e-02
2.047062043798052872e-02,2.307364273173341876e-02
2.144534444020647704e-02,2.456849123805539270e-02
2.246648065956055595e-02,2.616018496655719491e-02
2.353623904869997160e-02,2.785499812965527844e-02
2.465693478884133441e-02,2.965961142075257059e-02
2.583099330029768256e-02,3.158113834850660023e-02
2.706095549159615379e-02,3.362715327718906327e-02
2.834948325853611437e-02,3.580572128366741463e-02
2.969936524508930489e-02,3.812542994870010693e-02
3.111352287860945018e-02,4.059542320786223984e-02
3.259501669241288840e-02,4.322543739553629666e-02
3.414705294941382946e-02,4.602583962404807605e-02
3.577299058114871005e-02,4.900766864923267185e-02
3.747634845720770186e-02,5.218267838351592358e-02
3.926081300080543068e-02,5.556338422803334259e-02
4.113024616697303487e-02,5.916311240642093544e-02
4.308869380063769239e-02,6.299605249474365953e-02
4.514039439267841097e-02,6.707731335462666089e-02
4.728978825290817284e-02,7.142298269006934486e-02
4.954152711983423468e-02,7.605019046270565519e-02
5.190048422799475175e-02,8.097717641548397849e-02
5.437176485465883974e-02,8.622336197093494192e-02
5.696071736871604480e-02,9.180942678743858609e-02
5.967294480566681658e-02,9.775739027526396396e-02
6.251431699376475137e-02,1.040906983937057440e-01
6.549098325755460526e-02,1.108343160714572867e-01
6.860938572629839138e-02,1.180148256145287788e-01
7.187627327609255601e-02,1.256605314896180325e-01
7.529871613584940282e-02,1.338015718959746914e-01
7.888412118875312573e-02,1.424700375655567064e-01
8.264024800230677925e-02,1.517000982597705716e-01
8.657522562166120039e-02,1.615281374614279397e-01
9.069757016257169735e-02,1.719928957928508750e-01
9.501620324205597989e-02,1.831356237254601060e-01
9.954047128664224309e-02,1.950002441828029565e-01
1.042801657599937565e-01,2.076335256779779093e-01
1.092455443536868714e-01,2.210852666679351541e-01
1.144473531870044136e-01,2.354084918513532076e-01
1.198968500637882517e-01,2.506596611838630140e-01
1.256058288366851405e-01,2.668988924345289671e-01
1.315866449315136744e-01,2.841901981608688232e-01
1.378522420869939813e-01,3.026017380365323417e-01
1.444161803677093681e-01,3.222060875262739987e-01
1.512926655109258223e-01,3.430805239672992668e-01
1.584965796707835661e-01,3.653073311846676829e-01
1.660435136263949951e-01,3.889741238415043711e-01
1.739498005235567135e-01,4.141741928025567399e-01
1.822325512230979494e-01,4.410068728724670928e-01
1.909096913323668765e-01,4.695779343583272869e-01
2.000000000000000389e-01,5.000000000000000000e-01
